…
``` r
instacart %>%
  group_by(aisle_id) %>% 
  summarise(items_ordered = n()) %>% 
  arrange(desc(items_ordered))
```

    ## # A tibble: 134 × 2
    ##    aisle_id items_ordered
    ##       <int>         <int>
    ##  1       83        150609
    ##  2       24        150473
    ##  3      123         78493
    ##  4      120         55240
    ##  5       21         41699
    ##  6      115         36617
    ##  7       84         32644
    ##  8      107         31269
    ##  9       91         26240
    ## 10      112         23635
    ## # … with 124 more rows
…
We will first tidy the `ny_noaa` data set. This process involves

``` r
ny_noaa %>% 
  janitor::clean_names() %>% 
  separate(col = date, into = c('year', 'month','day'), sep = '-') %>%
  mutate(
    prcp = prcp/10, 
    tmax = as.numeric(tmax),
    tmin = as.numeric(tmin),
  )
```

    ## # A tibble: 2,595,176 × 9
    ##    id          year  month day    prcp  snow  snwd  tmax  tmin
    ##    <chr>       <chr> <chr> <chr> <dbl> <int> <int> <dbl> <dbl>
    ##  1 US1NYAB0001 2007  11    01       NA    NA    NA    NA    NA
    ##  2 US1NYAB0001 2007  11    02       NA    NA    NA    NA    NA
    ##  3 US1NYAB0001 2007  11    03       NA    NA    NA    NA    NA
    ##  4 US1NYAB0001 2007  11    04       NA    NA    NA    NA    NA
    ##  5 US1NYAB0001 2007  11    05       NA    NA    NA    NA    NA
    ##  6 US1NYAB0001 2007  11    06       NA    NA    NA    NA    NA
    ##  7 US1NYAB0001 2007  11    07       NA    NA    NA    NA    NA
    ##  8 US1NYAB0001 2007  11    08       NA    NA    NA    NA    NA
    ##  9 US1NYAB0001 2007  11    09       NA    NA    NA    NA    NA
    ## 10 US1NYAB0001 2007  11    10       NA    NA    NA    NA    NA
    ## # … with 2,595,166 more rows
